<?xml version="1.0" encoding="UTF-8" standalone="no"?>
<!-- Created with Inkscape (http://www.inkscape.org/) -->

<svg
   width="120"
   height="120"
   viewBox="0 0 31.75 31.75"
   version="1.1"
   id="svg5"
   inkscape:version="1.2.2 (b0a8486541, 2022-12-01)"
   sodipodi:docname="cres.svg"
   inkscape:export-filename="cres.png"
   inkscape:export-xdpi="25.6"
   inkscape:export-ydpi="25.6"
   xmlns:inkscape="http://www.inkscape.org/namespaces/inkscape"
   xmlns:sodipodi="http://sodipodi.sourceforge.net/DTD/sodipodi-0.dtd"
   xmlns="http://www.w3.org/2000/svg"
   xmlns:svg="http://www.w3.org/2000/svg">
  <sodipodi:namedview
     id="namedview7"
     pagecolor="#ffffff"
     bordercolor="#000000"
     borderopacity="0.25"
     inkscape:showpageshadow="2"
     inkscape:pageopacity="0.0"
     inkscape:pagecheckerboard="0"
     inkscape:deskcolor="#d1d1d1"
     inkscape:document-units="mm"
     showgrid="true"
     inkscape:zoom="4.385319"
     inkscape:cx="61.569067"
     inkscape:cy="76.277233"
     inkscape:window-width="1444"
     inkscape:window-height="864"
     inkscape:window-x="0"
     inkscape:window-y="0"
     inkscape:window-maximized="0"
     inkscape:current-layer="layer1">
    <inkscape:grid
       type="xygrid"
       id="grid9" />
  </sodipodi:namedview>
  <defs
     id="defs2" />
  <g
     inkscape:label="Layer 1"
     inkscape:groupmode="layer"
     id="layer1">
    <path
       style="fill:none;stroke:#000000;stroke-width:1;stroke-linecap:butt;stroke-linejoin:miter;stroke-dasharray:none;stroke-opacity:1"
       d="m 2.6458333,9.2604167 7.9374997,0 V 2.6458333 l 3.96875,5.2916667 3.96875,-5.2916667 1.322917,6.6145834 6.614583,-1.3229168 -3.96875,5.2916671 6.614584,2.645833 -7.937501,1.322916 5.291667,6.614584 -6.614583,-2.645833 v 3.96875 l -2.645833,-2.645834 -2.645834,6.614584 -1.322916,-6.614584 -3.9687503,3.96875 1.3229163,-5.291667 -2.645833,1.322917 2.645833,-3.96875 -9.2604163,2.645834 7.9375,-5.291667 -3.96875,-1.322917 3.96875,-1.322916 z"
       id="path414"
       sodipodi:nodetypes="ccccccccccccccccccccccccc" />
    <path
       style="fill:#000000;fill-opacity:1;stroke:#000000;stroke-width:0.264583px;stroke-linecap:butt;stroke-linejoin:miter;stroke-opacity:1"
       d="M 14.552083,13.229167 13.229167,10.583333 15.875,11.90625 17.197917,9.2604167 18.520833,13.229167 21.166666,14.552083 18.520833,15.875 19.84375,18.520833 17.197916,15.875 14.552083,18.520833 V 15.875 l -2.645833,-1.322917 2.645833,-1.322916"
       id="path1066"
       sodipodi:nodetypes="ccccccccccccc" />
    <text
       xml:space="preserve"
       style="font-size:11.2316px;font-family:'DejaVu Sans Mono';-inkscape-font-specification:'DejaVu Sans Mono';fill:#000000;fill-opacity:1;stroke:#fafafa;stroke-width:1.32292;stroke-linecap:round;stroke-dasharray:none;stroke-opacity:1;paint-order:stroke fill markers"
       x="2.4422131"
       y="26.453085"
       id="text620"><tspan
         sodipodi:role="line"
         id="tspan618"
         style="font-style:normal;font-variant:normal;font-weight:bold;font-stretch:normal;font-family:monospace;-inkscape-font-specification:'monospace Bold';fill:#000000;fill-opacity:1;stroke:#fafafa;stroke-width:1.32292;stroke-dasharray:none;stroke-opacity:1"
         x="2.4422131"
         y="26.453085"><tspan
           style="font-style:normal;font-variant:normal;font-weight:bold;font-stretch:normal;font-family:monospace;-inkscape-font-specification:'monospace Bold';fill:#006680"
           id="tspan1401">c</tspan><tspan
           style="font-style:normal;font-variant:normal;font-weight:bold;font-stretch:normal;font-family:monospace;-inkscape-font-specification:'monospace Bold';fill:#ff5555"
           id="tspan1509">res</tspan></tspan></text>
  </g>
</svg>
